{
  "total" : 1,
  "items" : [ {
    "uid" : "28014a6b82af653a8bf673cd047df7bb",
    "name" : "Load Leaseplan page",
    "statistic" : {
      "failed" : 1,
      "broken" : 0,
      "skipped" : 0,
      "passed" : 4,
      "unknown" : 0,
      "total" : 5
    }
  } ]
}